{
  "success": true,
  "data": {
    "currentPage": 2,
    "totalPage": 5,
    "totalCount": 55,
    "list": [
      {
        "id": 11
      },
      {
        "id": 12
      },
      {
        "id": 13
      },
      {
        "id": 14
      },
      {
        "id": 15
      },
      {
        "id": 16
      },
      {
        "id": 17
      },
      {
        "id": 18
      },
      {
        "id": 19
      },
      {
        "id": 20
      }
    ]
  },
  "message": "成功"
}
