{
  "success": true,
  "data": {
    "currentPage": 3,
    "totalPage": 5,
    "totalCount": 55,
    "list": [
      {
        "id": 31
      },
      {
        "id": 32
      },
      {
        "id": 33
      },
      {
        "id": 34
      },
      {
        "id": 35
      },
      {
        "id": 36
      },
      {
        "id": 37
      },
      {
        "id": 38
      },
      {
        "id": 39
      },
      {
        "id": 40
      }
    ]
  },
  "message": "成功"
}
