{
  "success": true,
  "data": {
    "currentPage": 1,
    "totalPage": 5,
    "totalCount": 55,
    "list": [
      {
        "id": 41
      },
      {
        "id": 42
      },
      {
        "id": 43
      },
      {
        "id": 44
      },
      {
        "id": 45
      },
      {
        "id": 46
      },
      {
        "id": 47
      },
      {
        "id": 48
      },
      {
        "id": 49
      },
      {
        "id": 50
      }
    ]
  },
  "message": "成功"
}
