{
  "success": true,
  "data": {
    "currentPage": 1,
    "totalPage": 5,
    "totalCount": 55,
    "list": [
      {
        "id": 51
      },
      {
        "id": 52
      },
      {
        "id": 53
      },
      {
        "id": 54
      },
      {
        "id": 55
      }
    ]
  },
  "message": "成功"
}
